<?xml version="1.0" encoding="utf-8"?>
<!-- Generator: Adobe Illustrator 21.1.0, SVG Export Plug-In . SVG Version: 6.00 Build 0)  -->
<svg version="1.1" id="Layer_1" xmlns="http://www.w3.org/2000/svg" xmlns:xlink="http://www.w3.org/1999/xlink" x="0px" y="0px"
	 viewBox="0 0 39.7 39.7" style="enable-background:new 0 0 39.7 39.7;" xml:space="preserve">
<style type="text/css">
	.st0{fill:#333333;}
	.st1{fill:none;}
</style>
<path class="st0" d="M26.9,25.1h-1.4l-0.5-0.5c1.8-2.1,2.9-4.8,2.9-7.7C27.8,10.3,22.5,5,15.9,5S4,10.3,4,16.9s5.3,11.9,11.9,11.9
	c2.9,0,5.7-1.1,7.7-2.9l0.5,0.5v1.4l9.1,9.1l2.7-2.7L26.9,25.1z M15.9,25.1c-4.6,0-8.2-3.7-8.2-8.2s3.7-8.2,8.2-8.2s8.2,3.7,8.2,8.2
	S20.4,25.1,15.9,25.1z"/>
<path class="st1" d="M0,0h48v48H0V0z"/>
</svg>
